<?xml version="1.0" encoding="UTF-8" standalone="no"?>
<!DOCTYPE svg PUBLIC "-//W3C//DTD SVG 1.1//EN" "http://www.w3.org/Graphics/SVG/1.1/DTD/svg11.dtd">
<svg width="100%" height="100%" viewBox="0 0 52 55" version="1.1" xmlns="http://www.w3.org/2000/svg" xmlns:xlink="http://www.w3.org/1999/xlink" xml:space="preserve" style="fill-rule:evenodd;clip-rule:evenodd;stroke-linejoin:round;stroke-miterlimit:1.41421;">
    <g transform="matrix(1,0,0,1,-21.9306,-19.6192)">
        <g transform="matrix(0.586586,0,0,0.586586,-178.51,-39.5247)">
            <g transform="matrix(1.04909,0.136388,-0.136388,1.04909,159.203,34.995)">
                <path d="M196.756,103.077C191.745,100.935 187.9,96.738 186.202,91.56C184.504,86.382 185.118,80.724 187.887,76.03C195.131,63.75 204.156,48.449 209.007,40.226C211.158,36.579 215.076,34.341 219.31,34.341C227.82,34.341 242.121,34.341 249.388,34.341C252.083,34.341 254.464,36.099 255.257,38.674C256.46,42.584 258.242,48.374 259.587,52.741C259.939,53.884 259.613,55.128 258.746,55.952C257.879,56.776 256.62,57.038 255.496,56.629C248.801,54.19 237.695,50.145 228.731,46.879C226.23,45.968 223.427,46.615 221.577,48.53C219.728,50.444 219.18,53.268 220.177,55.736C225.579,69.099 233.425,88.505 237.182,97.799C237.725,99.142 238.825,100.182 240.197,100.649C241.568,101.116 243.075,100.963 244.324,100.23C248.528,97.765 255.01,93.963 262.277,89.702C264.511,88.392 267.375,88.999 268.886,91.102C270.397,93.205 270.058,96.114 268.103,97.813C259.911,104.932 252.244,111.596 247.082,116.082C243.064,119.574 237.404,120.462 232.51,118.369C223.587,114.553 208.824,108.239 196.756,103.077ZM201.436,92.712C199.167,91.684 197.435,89.748 196.665,87.379C195.894,85.009 196.156,82.425 197.386,80.259C200.101,75.479 203.426,69.624 205.843,65.367C206.449,64.301 207.612,63.676 208.836,63.76C210.06,63.845 211.126,64.624 211.58,65.763C214.685,73.572 220.047,87.054 223.528,95.807C224.08,97.195 223.734,98.779 222.653,99.81C221.573,100.841 219.975,101.112 218.614,100.496C213.423,98.143 206.733,95.112 201.436,92.712Z" style="fill:white;"/>
            </g>
        </g>
    </g>
</svg>
